<?xml version="1.0" standalone="yes"?>
<!DOCTYPE svg PUBLIC "-//W3C//DTD SVG 1.1//EN" "http://www.w3.org/Graphics/SVG/1.1/DTD/svg11.dtd">
<svg xmlns="http://www.w3.org/2000/svg" xmlns:xlink="http://www.w3.org/1999/xlink" version="1.1" width="104" height="200" viewBox="-7679,-17705 15039,29020">
<g id="state_outline">
<path id="New Hampshire" d="M 893,-14435 l 15,-50 21,-56 15,-46 15,-35 10,-31 10,-40 5,-31 0,-30 -10,-16 -15,-15 -46,0 -15,-10 -16,-15 0,-15 11,-26 15,-20 10,-20 10,-26 15,-45 5,-31 5,-25 11,-25 20,-26 10,-15 20,-26 10,-25 16,-25 20,-16 20,-10 31,-5 25,-15 31,-21 25,-15 25,-25 16,-31 15,-25 10,-36 25,-45 26,-46 15,-36 20,-40 46,-36 46,-35 25,-36 15,-20 5,-21 0,-30 5,-36 -10,-25 -20,-20 -16,-25 -15,-21 0,-25 5,-31 10,-25 15,-20 21,-31 20,-30 10,-31 10,-45 21,-46 20,-46 10,-46 10,-30 5,-41 15,-35 10,-46 21,-30 15,-26 15,-30 15,-31 21,-25 15,-21 5,-30 -5,-30 -5,-26 -21,-25 -30,-25 -72,-66 -40,-41 -56,-35 -31,-21 -20,-15 -15,-15 -16,-20 5,-15 5,-11 16,0 30,10 51,5 76,0 56,-10 41,-10 46,0 20,10 20,15 36,10 20,5 15,0 21,-10 10,-5 10,-20 10,-36 10,-46 15,-30 11,-15 10,-11 15,-10 20,0 16,-5 20,-5 15,-15 10,-21 0,-30 -5,-30 -10,-26 -10,-30 0,-26 5,-15 10,-10 10,-5 20,0 26,-5 30,-16 21,-15 30,-5 15,-5 26,-15 30,-31 26,-25 20,-26 40,-20 46,-21 20,-15 21,-10 20,-5 20,-26 21,-25 20,-30 25,-26 15,-10 36,-15 36,-21 15,0 5,5 5,10 5,16 5,20 10,5 16,5 40,10 21,5 15,10 10,21 5,25 6,36 0,25 15,51 20,30 10,20 21,21 46,20 30,25 56,61 31,41 20,50 16,21 15,10 61,0 25,10 41,15 25,5 31,-5 56,0 20,15 15,5 21,10 20,10 31,10 35,0 56,-5 36,-10 25,-10 20,-16 31,-5 20,0 21,5 20,15 36,21 30,15 26,5 20,0 25,-16 21,-25 30,-46 35,-61 21,-51 15,-55 15,-46 20,-36 10,-20 11,-5 20,-5 15,-5 10,-11 5,-10 0,-20 -10,-20 -10,-26 -5,-20 0,-20 5,-16 15,-30 25,-41 20,-35 5,-16 16,-10 40,-10 36,-20 47,-32 68,973 83,1491 106,1632 35,553 6,105 53,764 9,155 28,461 3,83 8,125 21,284 0,112 32,496 51,1480 84,1513 3,76 2,81 54,994 8,180 8,145 7,113 8,250 6,168 38,1059 1,21 46,945 32,587 63,1603 17,389 1,7 51,1133 50,1093 13,217 44,45 46,46 37,48 25,42 13,43 7,29 0,60 -5,10 -15,5 -26,11 -19,18 -2,6 -9,12 4,22 15,20 15,31 13,65 10,43 3,66 -14,71 -3,38 -11,30 -8,36 -19,36 -20,31 -14,31 -10,30 -11,26 -3,20 -2,18 0,12 -5,10 -15,16 -11,20 6,20 5,15 20,5 16,10 15,10 22,15 10,15 1,20 0,11 2,8 -6,21 -18,82 -9,46 11,30 11,20 5,10 2,50 -4,36 -10,30 -24,31 -5,26 -7,35 -16,20 -20,20 -10,5 -31,26 -14,18 -20,31 -1,9 -11,38 -7,9 -3,51 6,40 16,40 1,30 1,16 2,9 -6,31 -20,21 -10,25 -4,26 6,25 9,31 6,23 2,16 17,50 22,40 21,25 9,22 13,38 2,23 -5,20 5,16 6,10 0,50 10,10 10,5 21,10 15,11 11,13 23,52 37,44 16,25 11,10 15,2 30,-10 31,0 35,10 16,-1 21,0 20,-1 10,0 11,15 -1,20 12,20 6,9 8,8 25,20 21,10 25,26 46,40 11,19 6,20 1,25 6,31 8,23 3,7 16,25 15,14 16,10 16,3 15,10 5,20 5,15 0,10 -10,10 -10,5 -20,0 -9,18 -10,15 -2,23 0,8 15,6 14,-3 17,-1 21,10 5,5 0,36 5,10 15,10 31,10 26,9 16,-1 10,10 6,20 5,20 11,20 10,19 13,14 21,20 46,50 25,26 17,19 16,29 17,25 16,18 5,8 20,6 21,3 27,2 30,10 16,10 20,21 16,19 11,25 5,25 6,20 0,10 21,10 21,6 21,5 27,6 20,10 26,20 26,25 16,40 11,25 10,20 11,20 15,19 7,31 -4,20 -10,25 -15,21 -9,16 -5,25 1,20 -6,14 -13,27 -10,26 1,15 5,30 1,20 1,25 -5,26 -11,19 -12,15 -14,12 -20,10 -11,10 -10,20 5,15 11,20 15,21 5,35 0,25 -10,51 -10,40 -10,41 -10,40 -8,38 -2,21 -2,12 -3,35 -5,38 5,51 2,35 7,23 5,16 17,44 0,26 -26,40 16,36 -36,30 -71,-40 -52,-61 -10,-50 -25,15 -21,50 -97,16 -35,10 -108,-45 -10,40 0,15 21,21 20,10 51,35 36,15 0,147 16,45 0,40 15,51 -36,10 -46,-60 -40,5 10,30 5,46 -36,55 -35,31 -10,10 -41,10 -36,35 -20,31 -11,30 -15,20 -30,21 -36,15 -36,0 -25,-10 41,60 -5,41 0,35 -16,46 21,80 25,-35 31,-40 5,-46 143,-41 41,-20 56,0 51,5 36,-10 51,25 15,30 46,10 31,15 36,20 15,0 10,-15 57,0 10,-36 0,-35 -11,-40 -36,-61 -46,-30 -25,-5 -51,0 -16,-5 -10,-25 -31,-86 26,-35 35,-71 5,-15 10,-86 -10,-86 0,-71 30,-5 82,40 41,-15 51,0 46,-5 56,-16 41,41 16,15 46,25 61,45 102,71 62,55 87,71 30,50 47,25 46,25 51,20 -5,41 -21,25 -15,26 -5,30 41,15 31,-5 25,20 -15,35 -31,21 -30,15 -56,5 -62,25 16,26 66,10 56,-11 31,-10 30,-20 16,-5 30,-10 11,10 25,25 26,0 30,-15 26,15 5,30 21,10 20,15 5,56 -76,116 -76,51 -16,35 5,30 -10,46 -20,46 -41,25 -20,15 -5,20 -5,26 -11,20 -40,0 -5,25 25,51 -20,35 -26,15 -30,31 -20,91 -5,10 0,25 -21,35 -40,56 -21,76 -5,35 -51,61 -25,36 -15,25 -26,45 -20,26 -36,50 -10,41 -15,40 -5,81 15,61 0,10 -46,15 -35,30 -21,31 -10,30 5,40 -20,46 -26,-5 -30,-96 -62,-65 -71,15 30,55 52,56 -16,20 -15,10 -25,20 -26,61 31,45 66,15 26,-25 20,-35 21,-5 25,15 -15,70 -5,96 -5,46 -15,-1 -77,31 -66,40 -66,36 -31,15 -26,-5 -76,-45 -87,-66 -77,-70 -46,-30 -51,-25 -62,-26 -71,-15 -67,1 -71,15 -67,30 -122,71 -102,56 -36,20 -51,21 -82,20 -132,21 -87,25 -138,26 -51,20 -36,25 -51,46 -46,56 -142,449 -552,-165 -286,147 -168,197 42,591 -57,-20 -102,-30 -92,-30 -72,-15 -56,0 -61,5 -66,25 -7,5 -45,31 -61,61 -61,80 -56,96 -66,101 -118,137 -725,-9 -1999,-58 -1932,-78 -281,-13 -240,-11 -1482,-66 -1421,-61 -537,-25 -883,-40 -11,-20 -23,-44 -49,-77 -36,-60 -10,-31 -5,-30 0,-30 -5,-31 -10,-30 -15,-35 -20,-31 -35,-26 -20,-25 -22,-21 -16,-10 -18,-5 -21,0 -25,6 -16,19 -20,15 -26,25 -18,4 -19,-7 -5,-16 -6,-19 0,-20 10,-10 10,-11 3,-23 0,-25 -5,-31 -8,-32 -5,-15 -15,-20 -16,-20 -20,-15 -26,-10 -30,-31 -31,-35 -25,-25 -15,-31 -25,-40 -20,-36 -20,-61 -25,-81 -14,-61 -10,-25 -5,-35 0,-41 6,-55 0,-25 1,-26 -5,-20 -10,-25 -10,-26 -15,-35 -12,-34 -12,-37 1,-36 -1,-50 6,-45 10,-36 11,-45 15,-30 16,-20 36,-25 62,-50 14,-30 20,-35 11,-26 10,-35 3,-31 7,-35 5,-20 5,-15 16,-25 10,-26 0,-30 -5,-30 0,-35 -10,-21 0,-35 5,-30 0,-21 -5,-30 -11,-30 -5,-25 -13,-36 -7,-25 0,-20 10,-36 10,-20 26,-15 25,-20 26,-15 25,-15 26,-11 40,-7 62,-20 61,-15 62,-24 20,-15 16,-15 45,0 16,-5 15,-10 36,-25 10,-20 15,-25 11,-26 5,-25 0,-25 -4,-21 -3,-12 -4,-18 -1,-21 6,-20 16,-19 15,-15 16,-11 20,-15 20,-10 21,-10 24,-8 26,-40 5,-20 1,-25 -5,-18 -10,-25 -26,-21 -41,-30 -35,-35 -21,-46 -3,-55 1,-42 5,-25 7,-24 0,-30 -5,-26 -10,-25 -15,-25 -16,-31 -5,-35 5,-25 10,-26 21,-15 25,-20 31,-30 42,-38 65,-74 5,-7 13,-25 11,-35 7,-20 3,-20 -4,-31 0,-30 -5,-30 -10,-31 -4,-30 -5,-25 0,-31 5,-25 11,-15 15,-20 11,-15 10,-15 11,-25 5,-25 -2,-29 -5,-25 -22,-49 -21,-45 -39,-63 -20,-20 -16,-26 -10,-30 -15,-20 -5,-36 10,-60 7,-46 4,-55 1,-11 -4,-20 5,-31 6,-30 6,-22 9,-20 12,-18 9,-13 10,-20 6,-20 0,-30 -5,-25 -15,-23 -10,-26 -5,-25 0,-18 26,-35 36,-35 21,-20 9,-10 5,-18 -1,-36 -10,-27 -5,-36 -6,-50 10,-35 16,-35 11,-31 10,-40 5,-24 -2,-22 -2,-15 -10,-35 -5,-30 -10,-31 -6,-36 5,-25 4,-11 6,-17 10,-30 8,-22 11,-15 25,-15 36,-30 21,-20 37,-40 25,-45 21,-41 20,-45 20,-46 11,-35 15,-46 8,-41 6,-35 12,-40 10,-30 20,-36 21,-45 5,-30 -5,-16 -21,-25 -25,-25 -31,-46 -15,-45 5,-36 7,-41 -4,-21 11,-20 21,-39 16,-25 15,-20 31,-36 30,-25 16,-30 -5,-21 -11,-15 -20,-10 -26,-5 -30,5 -36,-10 -41,-25 -20,-31 -5,-35 -5,-25 0,-51 5,-40 4,-37 16,-24 15,-20 26,-36 10,-20 5,-20 5,-45 10,-36 6,-45 5,-46 5,-45 5,-46 15,-45 19,-92 22,-116 10,-45 10,-41 11,-35 6,-38 4,-40 -4,-38 0,-36 -7,-28 11,-27 20,-36 19,-57 21,-56 6,-30 5,-35 1,-41 -5,-35 -10,-31 -20,-30 -27,-29 -41,-35 -13,-18 -3,-3 -20,-24 -2,-41 1,-31 17,-45 20,-40 25,-38 31,-56 31,-50 16,-55 11,-61 -2,-44 0,-42 -5,-40 -1,-41 5,-40 11,-41 10,-35 11,-25 21,-30 30,-20 26,-20 50,-20 82,-40 46,-30 30,-21 28,-18 26,-25 28,-28 15,-26 4,-6 7,-20 4,-31 -6,-25 -9,-23 -15,-30 -15,-41 0,-20 10,-35 11,-23 21,-30 15,-15 0,-26 -5,-20 -5,-25 9,-13 21,-20 35,-22 6,-6 12,-19 10,-26 11,-25 0,-25 -5,-20 0,-21 6,-20 5,-10 15,-15 11,-10 26,-50 31,-55 16,-41 14,-35 7,-25 -5,-26 -10,-31 -12,-44 3,-66 6,-51 5,-40 11,-36 10,-40 16,-25 15,-21 25,-30 31,-35 46,-51 30,-41 21,-25 19,-27 25,-21 25,-15 42,-20 35,-20 52,-29 30,-25 37,-10 36,-20 25,-15 26,-20 20,-31 26,-50 25,-46 26,-40 40,-46 36,-20 21,-10 25,-16 13,-12 10,-25 2,-25 -1,-25 -5,-31 0,-20 16,-30 10,-15 16,-15 25,-30 26,-46 11,-30 16,-25 15,-25 26,-25 10,-26 6,-35 -7,-35 -11,-37 -7,-29 -5,-26 -4,-20 10,-20 10,-30 11,-21 16,-40 0,-50 -4,-56 -15,-46 -10,-61 -7,-28 -5,-32 3,-41 17,-25 31,-20 20,-5 31,-10 20,-10 16,-11 5,-20 5,-25 -5,-20 -16,-15 -10,-21 -10,-50 10,-21 5,-10 15,-5 26,-10 15,-5 16,-5 20,-15 5,-15 17,-29 10,-25 16,-30 13,-25 15,-23 45,-53 66,-50 52,-35 25,-20 26,-14 26,-20 15,-21 10,-20 0,-30 6,-26 -1,-35 6,-35 0,-31 -11,-25 3,-35 2,-22 19,-18 17,-11 41,-10 25,-20 31,-36 15,-30 5,-26 0,-35 5,-20 16,-10 10,-6 15,-5 15,-10 0,-10 -5,-5 -15,-10 -36,-20 -25,-5 -21,-5 -35,0 -21,10 -15,5 -5,-5 0,-10 5,-26 5,-20 0,-76 2,-26 -6,-16 -7,-11 -9,-18 -5,-25 -6,-25 6,-26 15,-25 15,-30 20,-31 11,-30 0,-56 5,-20 15,-20 20,0 16,5 10,15 15,15 15,10 11,10 15,-10 5,-15 -10,-20 -15,-15 -11,-31 -5,-25 0,-15 12,-21 14,-4 22,11 26,3 14,-7 4,-15 1,-15 5,-18 13,-26 4,-11 15,-15 11,-15 6,-16 -6,-25 -10,-20 0,-20 1,-21 5,-20 20,-25 16,-15 31,-15 25,-10 21,-15 0,-15 -5,-15 -20,-11 -15,-10 -5,-15 5,-10 15,-15 26,-10 20,-10 9,-10 16,-15 20,-25 15,-31 12,-42 -7,-13 5,-27 10,-10 11,-9 20,-5 49,0 21,5 10,0 16,-6 4,-14 0,-15 -3,-16 -10,-10 -26,-15 -15,-10 -20,-10 0,-10 10,-16 15,-5 21,-5 25,-15 10,-10 10,-20 5,-41 0,-30 -10,-20 -15,-16 -31,0 -20,21 -15,15 -21,10 -10,0 -10,-5 -15,-15 -16,-41 -10,-35 0,-72 9,-26 11,-20 21,-24 15,-20 20,-10 21,-10 15,-11 15,-15 5,-10 6,-15 0,-66 -11,-25 -5,-15 -10,-16 -10,-20 -5,-30 0,-26 10,-40 0,-35 1,-32 -4,-18 -7,-16 -13,-19 -14,-23 -15,-15 -25,-29 -20,-36 -26,-55 -25,-56 -25,-51 -20,-41 -5,-25 -10,-26 5,-15 11,-30 15,-25 9,-22 7,-15 5,-19 5,-20 1,-30 12,-25 10,-36 10,-25 5,-31 5,-25 5,-30 6,-46 -1,-30 16,-46 10,-30 5,-41 -9,-37 -17,-30 -15,-25 -10,-19 -10,-25 -2,-31 -3,-51 10,-30 0,-20 -5,-31 -10,-15 -10,-10 -16,0 -5,-10 -5,-21 6,-30 21,-61 8,-30 12,-27 10,-15 17,-23 31,-20 25,-10 30,-11 18,-16 31,-30 25,-25 15,-26 10,-30 11,-30 0,-36 5,-30 10,-18 16,-30 20,-10 16,-5 36,-10 35,-15 36,-9 65,-30 51,-25 37,-16 51,-21 37,-17 46,-15 48,-15 56,-10 54,-4 30,0 26,6 41,5 25,0 33,-5 25,-6 31,-24 30,-31 46,-35 50,-13 36,-10 25,0 31,11 30,15 36,21 35,26 41,20 45,16 38,5 41,-5 56,-16 36,-25 51,-24 66,-37 30,-11 56,-20 46,-15 41,-20 25,-20 21,-20 10,-36 0,-45 -5,-97 2,-20 0,-25 3,-41 20,-50 41,-51 35,-36 41,-35 41,-18 35,-20 46,-15 36,-15 36,-20 31,-10 25,-9 4,-1 22,-4 15,5 20,15 20,16 15,10 16,5 25,0 15,-10 16,-16 15,-25 20,-15 26,-15 30,-6 37,-5 36,-2 36,-5 35,-9 36,-15 46,-25 64,-62 29,-23 27,-16 31,-15 25,-21 11,-20 10,-25 5,-15 20,-16 20,-10 26,-15 25,-8 31,-30 20,-35 16,-46 11,-65 5,-36 10,-18 14,-15 21,-15 20,-6 15,-5 27,-7 11,-14 7,-16 -6,-15 -10,-14 -21,-21 -10,-15 0,-15 11,-21 15,-20 21,-20 15,-5 16,1 15,15 -6,20 0,10 16,5 31,0 21,-10 15,-20 20,-26 5,-20 11,-20 15,-10 20,-5 41,0 20,-6 26,-2 15,-10 21,-10 15,-20 10,-25 11,-41 11,-35 5,-15 5,-11 15,-4 15,10 21,0 5,-5 0,-10 -5,-10 -7,-9 -3,-12 -5,-15 1,-18 7,-6 6,3 15,10 7,16 9,10 11,11 10,0 4,-6 4,-9 2,-17 -6,-10 -7,-10 -15,-20 -17,-30 -20,-25 -25,-21 -30,-40 -10,-16 5,-15 15,-5 41,0 20,1 26,-25 31,-46 16,-30 5,-30 5,-36 -9,-30 -16,-21 -40,-30 -51,-41 -37,-41 -12,-27 -10,-25 -6,-20 6,-25 20,-20 21,-25 20,-5 41,-5 46,-4 30,5 52,10 20,-5 21,-5 15,-15 10,-15 10,-26 10,-15 26,0 15,5 10,-10 -5,-20 -10,-21 -15,-20 -10,-25 0,-26 20,-15 10,0 10,15 0,21 11,15 20,-5 21,-8 21,-19 25,-27 5,-20 4,-23 -20,-30 0,-20 -5,-6 -15,2 -21,9 -12,-11 1,-7 6,-13 0,-10 -2,-8 -14,-10 -16,6 -14,12 -15,11 -17,-12 5,-12 10,-15 10,-12 2,-15 -10,-10 -36,0 -20,5 -16,0 -5,-10 10,-16 31,-20 15,0 10,-5 11,-10 -1,-15 -5,-21 -5,-30 -5,-56 0,-35 5,-21 5,-5 15,0 21,5 10,5 10,-5 0,-10 -25,-25 -16,-5 -15,-5 -15,-10 -5,-10 15,-6 25,5 11,6 10,5 11,-11 -1,-8 -9,-10 -15,-10 -15,-6 -20,-14 -10,-6 -21,-15 -14,-6 -18,-16 -6,-21 9,-12 22,-12 5,-16 0,-10 -5,-20 -10,-25 0,-31 -10,-15 -16,-10 -15,-5 -10,5 -21,10 -25,5 -16,0 -20,-5 -11,-5 -4,-16 10,-5 15,1 15,-5 5,-5 1,-11 -11,-5 -25,0 -20,-5 -10,-10 -21,-11 -10,-20 0,-20 6,-26 -5,-25 -5,-20 -5,-16 5,-15 11,-15 0,-20 -22,-11 -25,-6 -14,-9 -15,-31 -8,-21 -10,-50 -7,-30 1,-21 0,-30 5,-20 -5,-26 -10,-15 -15,-30 -5,-28 -15,-36 -36,-51 -54,-84 -21,-38 -5,-14 -9,-19 -13,-27 -10,-10 -20,-10 -16,-26 0,-50 -5,-20 -5,-26 -10,-30 -16,-26 -9,-15 -10,-25 -1,-20 15,-21 16,-10 20,-5 10,-5 15,-10 16,-10 25,-21 20,-25 21,-25 15,-26 18,-23 25,-31 52,-85 21,-25 31,-25 30,-20 21,-15 25,-15 21,-10 10,-10 16,-20 10,-21 0,-20 6,-30 5,-21 10,-35 11,-30 0,-32 -13,-31 -10,-25 -12,-29 6,-26 10,-20 15,-15 17,-10 20,-15 21,-15 25,-21 15,-25 26,-41 10,-35 10,-31 5,-35 -10,-25 -5,-31 -4,-34 6,-25 15,-26 11,-20 10,-20 -3,-32 5,-15 10,-26 21,-25 20,-15 25,-8 25,-15 16,-10 20,-15 10,-20 16,-20 26,-36 20,-25 21,-25 20,-20 16,-25 15,-20 16,-36 14,-26 14,-36 26,-19 25,-25 15,-20 10,-16 16,-15 5,-10 5,-15 -5,-16 -16,-10 -10,-5 -5,-10 -5,-20 -15,-20 -16,-25 -35,-36 -30,-31 -15,-31 -15,-35 -10,-36 -10,-30 -5,-21 -3,-26 9,-9 16,-6 6,-10 -2,-14 -5,-16 -4,-25 -5,-41 5,-40 6,-26 5,-20 -5,-25 -5,-15 -10,-11 -10,-5 -5,0 -10,-10 -5,-15 -5,-26 -15,-20 -15,-26 -15,-5 -16,-15 -16,-19 -11,-25 -25,-25 -18,-19 -5,-8 -8,-20 9,-16 3,-4 17,-17 17,-15 0,-11 -5,-25 -1,-35 16,-41 25,-20 31,-25 46,-20 41,-20 55,-14 46,-5 56,15 46,10 15,5 26,10 15,0 15,-15 16,-18 21,-35 25,-15 26,-15 20,-10 10,-26 z" />
</g>
<path id="Belknap" d="M 684,-488 l 372,364 26,20 148,157 31,25 965,919 57,81 20,0 567,525 271,75 153,157 41,-20 31,-71 20,10 5,5 271,207 -229,314 109,793 155,935 -607,790 -516,-404 -823,-600 -802,-560 -388,-297 -16,0 -92,-31 -5,36 11,15 -21,5 -61,-20 -26,50 -20,26 -46,25 -5,-10 -36,5 -15,25 -51,-15 -5,51 -36,35 -15,0 -10,-50 -16,-10 -51,25 -20,-10 0,-30 -26,-21 -25,0 0,-45 -16,5 -51,-137 26,-10 -31,-91 31,-10 -31,-101 -26,10 -56,-166 -117,40 -6,-25 -61,-51 -87,-35 -51,-40 -5,-31 -97,-136 36,-81 -6,-46 -158,-106 -56,-146 -66,-25 -52,-71 5,-30 36,-41 -5,-45 61,-46 10,-51 -127,-106 25,-65 77,-11 51,-60 30,0 26,60 25,20 133,-15 107,-86 61,-15 21,-31 -26,-50 26,-51 91,-50 -46,-96 41,-92 -15,-35 20,-25 -31,-197 31,-51 25,-71 -26,-106 26,-51 1015,-122 z" />
<path id="Carroll" d="M 1609,-5505 l 163,-36 67,304 20,91 225,137 41,192 62,314 -35,299 86,111 22,-15 85,-56 92,0 5,-36 56,-339 10,-122 0,-10 -26,0 81,-223 102,-294 152,-430 91,-249 1239,99 208,-31 230,0 -1,-415 -16,-96 272,-17 8,180 8,145 7,113 8,250 6,168 38,1059 1,21 46,945 32,587 63,1603 17,389 1,7 51,1133 50,1093 13,217 44,45 46,46 37,48 25,42 13,43 7,29 0,60 -5,10 -15,5 -26,11 -19,18 -2,6 -9,12 -494,627 -108,-520 -51,55 -21,-55 -45,55 -31,-35 -56,41 -36,-31 -142,228 -36,-65 -31,60 -30,-50 -41,45 -36,-55 -46,61 -134,-728 -285,375 -271,-207 -5,-5 -20,-10 -31,71 -41,20 -153,-157 -271,-75 -567,-525 -20,0 -57,-81 -965,-919 -31,-25 -148,-157 -26,-20 -372,-364 -47,-379 -5,-15 -46,0 -67,-435 -31,-182 -10,-61 -62,-395 194,-25 627,-92 36,-5 51,-10 275,-46 382,-67 62,-10 -31,-228 -26,-157 -114,-799 290,-522 -158,0 -123,-318 41,-66 5,-172 -72,-289 -26,-111 -199,-121 -102,-497 z" />
<path id="Cheshire" d="M -3428,6524 l 30,5 -81,515 10,0 -5,71 -127,632 -5,156 -36,667 460,10 98,672 154,1050 245,5 129,839 -1482,-66 -1421,-61 -537,-25 -883,-40 -11,-20 -23,-44 -49,-77 -36,-60 -10,-31 -5,-30 0,-30 -5,-31 -10,-30 -15,-35 -20,-31 -35,-26 -20,-25 -22,-21 -16,-10 -18,-5 -21,0 -25,6 -16,19 -20,15 -26,25 -18,4 -19,-7 -5,-16 -6,-19 0,-20 10,-10 10,-11 3,-23 0,-25 -5,-31 -8,-32 -5,-15 -15,-20 -16,-20 -20,-15 -26,-10 -30,-31 -31,-35 -25,-25 -15,-31 -25,-40 -20,-36 -20,-61 -25,-81 -14,-61 -10,-25 -5,-35 0,-41 6,-55 0,-25 1,-26 -5,-20 -10,-25 -10,-26 -15,-35 -12,-34 -12,-37 1,-36 -1,-50 6,-45 10,-36 11,-45 15,-30 16,-20 36,-25 62,-50 14,-30 20,-35 11,-26 10,-35 3,-31 7,-35 5,-20 5,-15 16,-25 10,-26 0,-30 -5,-30 0,-35 -10,-21 0,-35 5,-30 0,-21 -5,-30 -11,-30 -5,-25 -13,-36 -7,-25 0,-20 10,-36 10,-20 26,-15 25,-20 26,-15 25,-15 26,-11 40,-7 62,-20 61,-15 62,-24 20,-15 16,-15 45,0 16,-5 15,-10 36,-25 10,-20 15,-25 11,-26 5,-25 0,-25 -4,-21 -3,-12 -4,-18 -1,-21 6,-20 16,-19 15,-15 16,-11 20,-15 20,-10 21,-10 24,-8 26,-40 5,-20 1,-25 -5,-18 -10,-25 -26,-21 -41,-30 -35,-35 -21,-46 -3,-55 1,-42 5,-25 7,-24 0,-30 -5,-26 -10,-25 -15,-25 -16,-31 -5,-35 5,-25 10,-26 21,-15 25,-20 31,-30 42,-38 65,-74 5,-7 13,-25 11,-35 7,-20 3,-20 -4,-31 0,-30 -5,-30 -10,-31 -4,-30 -5,-25 0,-31 5,-25 11,-15 15,-20 11,-15 10,-15 11,-25 5,-25 -2,-29 -5,-25 -22,-49 -21,-45 -39,-63 -20,-20 -16,-26 -10,-30 -15,-20 -5,-36 10,-60 7,-46 4,-55 157,15 0,273 486,40 -36,-283 378,30 -16,-80 618,-81 807,-122 -133,359 -45,192 582,35 z" />
<path id="Coos" d="M 893,-14435 l 15,-50 21,-56 15,-46 15,-35 10,-31 10,-40 5,-31 0,-30 -10,-16 -15,-15 -46,0 -15,-10 -16,-15 0,-15 11,-26 15,-20 10,-20 10,-26 15,-45 5,-31 5,-25 11,-25 20,-26 10,-15 20,-26 10,-25 16,-25 20,-16 20,-10 31,-5 25,-15 31,-21 25,-15 25,-25 16,-31 15,-25 10,-36 25,-45 26,-46 15,-36 20,-40 46,-36 46,-35 25,-36 15,-20 5,-21 0,-30 5,-36 -10,-25 -20,-20 -16,-25 -15,-21 0,-25 5,-31 10,-25 15,-20 21,-31 20,-30 10,-31 10,-45 21,-46 20,-46 10,-46 10,-30 5,-41 15,-35 10,-46 21,-30 15,-26 15,-30 15,-31 21,-25 15,-21 5,-30 -5,-30 -5,-26 -21,-25 -30,-25 -72,-66 -40,-41 -56,-35 -31,-21 -20,-15 -15,-15 -16,-20 5,-15 5,-11 16,0 30,10 51,5 76,0 56,-10 41,-10 46,0 20,10 20,15 36,10 20,5 15,0 21,-10 10,-5 10,-20 10,-36 10,-46 15,-30 11,-15 10,-11 15,-10 20,0 16,-5 20,-5 15,-15 10,-21 0,-30 -5,-30 -10,-26 -10,-30 0,-26 5,-15 10,-10 10,-5 20,0 26,-5 30,-16 21,-15 30,-5 15,-5 26,-15 30,-31 26,-25 20,-26 40,-20 46,-21 20,-15 21,-10 20,-5 20,-26 21,-25 20,-30 25,-26 15,-10 36,-15 36,-21 15,0 5,5 5,10 5,16 5,20 10,5 16,5 40,10 21,5 15,10 10,21 5,25 6,36 0,25 15,51 20,30 10,20 21,21 46,20 30,25 56,61 31,41 20,50 16,21 15,10 61,0 25,10 41,15 25,5 31,-5 56,0 20,15 15,5 21,10 20,10 31,10 35,0 56,-5 36,-10 25,-10 20,-16 31,-5 20,0 21,5 20,15 36,21 30,15 26,5 20,0 25,-16 21,-25 30,-46 35,-61 21,-51 15,-55 15,-46 20,-36 10,-20 11,-5 20,-5 15,-5 10,-11 5,-10 0,-20 -10,-20 -10,-26 -5,-20 0,-20 5,-16 15,-30 25,-41 20,-35 5,-16 16,-10 40,-10 36,-20 47,-32 68,973 83,1491 106,1632 35,553 6,105 53,764 9,155 28,461 3,83 8,125 21,284 0,112 32,496 51,1480 84,1513 3,76 2,81 54,994 -272,17 16,96 1,415 -230,0 -208,31 -1239,-99 -91,249 -152,430 -102,294 -81,223 26,0 0,10 -10,122 -56,339 -5,36 -92,0 -85,56 -22,15 -86,-111 35,-299 -62,-314 -41,-192 -225,-137 -20,-91 -67,-304 -163,36 -225,-415 -219,-116 -280,51 -11,-81 -45,5 -82,16 -81,15 -255,41 -87,15 -5,-35 -87,-522 -790,-354 -82,46 -531,-806 22,-4 15,5 20,15 20,16 15,10 16,5 25,0 15,-10 16,-16 15,-25 20,-15 26,-15 30,-6 37,-5 36,-2 36,-5 35,-9 36,-15 46,-25 64,-62 29,-23 27,-16 31,-15 25,-21 11,-20 10,-25 5,-15 20,-16 20,-10 26,-15 25,-8 31,-30 20,-35 16,-46 11,-65 5,-36 10,-18 14,-15 21,-15 20,-6 15,-5 27,-7 11,-14 7,-16 -6,-15 -10,-14 -21,-21 -10,-15 0,-15 11,-21 15,-20 21,-20 15,-5 16,1 15,15 -6,20 0,10 16,5 31,0 21,-10 15,-20 20,-26 5,-20 11,-20 15,-10 20,-5 41,0 20,-6 26,-2 15,-10 21,-10 15,-20 10,-25 11,-41 11,-35 5,-15 5,-11 15,-4 15,10 21,0 5,-5 0,-10 -5,-10 -7,-9 -3,-12 -5,-15 1,-18 7,-6 6,3 15,10 7,16 9,10 11,11 10,0 4,-6 4,-9 2,-17 -6,-10 -7,-10 -15,-20 -17,-30 -20,-25 -25,-21 -30,-40 -10,-16 5,-15 15,-5 41,0 20,1 26,-25 31,-46 16,-30 5,-30 5,-36 -9,-30 -16,-21 -40,-30 -51,-41 -37,-41 -12,-27 -10,-25 -6,-20 6,-25 20,-20 21,-25 20,-5 41,-5 46,-4 30,5 52,10 20,-5 21,-5 15,-15 10,-15 10,-26 10,-15 26,0 15,5 10,-10 -5,-20 -10,-21 -15,-20 -10,-25 0,-26 20,-15 10,0 10,15 0,21 11,15 20,-5 21,-8 21,-19 25,-27 5,-20 4,-23 -20,-30 0,-20 -5,-6 -15,2 -21,9 -12,-11 1,-7 6,-13 0,-10 -2,-8 -14,-10 -16,6 -14,12 -15,11 -17,-12 5,-12 10,-15 10,-12 2,-15 -10,-10 -36,0 -20,5 -16,0 -5,-10 10,-16 31,-20 15,0 10,-5 11,-10 -1,-15 -5,-21 -5,-30 -5,-56 0,-35 5,-21 5,-5 15,0 21,5 10,5 10,-5 0,-10 -25,-25 -16,-5 -15,-5 -15,-10 -5,-10 15,-6 25,5 11,6 10,5 11,-11 -1,-8 -9,-10 -15,-10 -15,-6 -20,-14 -10,-6 -21,-15 -14,-6 -18,-16 -6,-21 9,-12 22,-12 5,-16 0,-10 -5,-20 -10,-25 0,-31 -10,-15 -16,-10 -15,-5 -10,5 -21,10 -25,5 -16,0 -20,-5 -11,-5 -4,-16 10,-5 15,1 15,-5 5,-5 1,-11 -11,-5 -25,0 -20,-5 -10,-10 -21,-11 -10,-20 0,-20 6,-26 -5,-25 -5,-20 -5,-16 5,-15 11,-15 0,-20 -22,-11 -25,-6 -14,-9 -15,-31 -8,-21 -10,-50 -7,-30 1,-21 0,-30 5,-20 -5,-26 -10,-15 -15,-30 -5,-28 -15,-36 -36,-51 -54,-84 -21,-38 -5,-14 -9,-19 -13,-27 -10,-10 -20,-10 -16,-26 0,-50 -5,-20 -5,-26 -10,-30 -16,-26 -9,-15 -10,-25 -1,-20 15,-21 16,-10 20,-5 10,-5 15,-10 16,-10 25,-21 20,-25 21,-25 15,-26 18,-23 25,-31 52,-85 21,-25 31,-25 30,-20 21,-15 25,-15 21,-10 10,-10 16,-20 10,-21 0,-20 6,-30 5,-21 10,-35 11,-30 0,-32 -13,-31 -10,-25 -12,-29 6,-26 10,-20 15,-15 17,-10 20,-15 21,-15 25,-21 15,-25 26,-41 10,-35 10,-31 5,-35 -10,-25 -5,-31 -4,-34 6,-25 15,-26 11,-20 10,-20 -3,-32 5,-15 10,-26 21,-25 20,-15 25,-8 25,-15 16,-10 20,-15 10,-20 16,-20 26,-36 20,-25 21,-25 20,-20 16,-25 15,-20 16,-36 14,-26 14,-36 26,-19 25,-25 15,-20 10,-16 16,-15 5,-10 5,-15 -5,-16 -16,-10 -10,-5 -5,-10 -5,-20 -15,-20 -16,-25 -35,-36 -30,-31 -15,-31 -15,-35 -10,-36 -10,-30 -5,-21 -3,-26 9,-9 16,-6 6,-10 -2,-14 -5,-16 -4,-25 -5,-41 5,-40 6,-26 5,-20 -5,-25 -5,-15 -10,-11 -10,-5 -5,0 -10,-10 -5,-15 -5,-26 -15,-20 -15,-26 -15,-5 -16,-15 -16,-19 -11,-25 -25,-25 -18,-19 -5,-8 -8,-20 9,-16 3,-4 17,-17 17,-15 0,-11 -5,-25 -1,-35 16,-41 25,-20 31,-25 46,-20 41,-20 55,-14 46,-5 56,15 46,10 15,5 26,10 15,0 15,-15 16,-18 21,-35 25,-15 26,-15 20,-10 10,-26 z" />
<path id="Grafton" d="M -1761,-7006 l 56,-20 46,-15 41,-20 25,-20 21,-20 10,-36 0,-45 -5,-97 2,-20 0,-25 3,-41 20,-50 41,-51 35,-36 41,-35 41,-18 35,-20 46,-15 36,-15 36,-20 31,-10 25,-9 4,-1 531,806 82,-46 790,354 87,522 5,35 87,-15 255,-41 81,-15 82,-16 45,-5 11,81 280,-51 219,116 225,415 -81,15 102,497 199,121 26,111 72,289 -5,172 -41,66 123,318 158,0 -290,522 114,799 26,157 31,228 -62,10 -382,67 -275,46 -51,10 -36,5 -627,92 -194,25 62,395 10,61 31,182 67,435 46,0 5,15 47,379 77,709 -1015,122 -26,51 26,106 -25,71 -31,51 31,197 -20,25 15,35 -41,92 46,96 -91,50 -26,51 26,50 -21,31 -61,15 -107,86 -133,15 -25,-20 -26,-60 -30,0 -51,60 -77,11 -25,65 127,106 -10,51 -61,46 5,45 -36,41 -20,-56 -36,-15 -61,15 -10,25 -21,-20 -76,20 -36,-20 -143,162 -25,-71 -31,-20 -20,10 -41,26 -36,-15 -56,75 -25,-10 -21,31 -56,0 -10,71 -256,-749 -346,405 -347,516 -1067,-176 -20,-106 -174,268 -234,-101 107,-172 -684,-298 -102,-41 -46,-20 -960,-173 4,-6 7,-20 4,-31 -6,-25 -9,-23 -15,-30 -15,-41 0,-20 10,-35 11,-23 21,-30 15,-15 0,-26 -5,-20 -5,-25 9,-13 21,-20 35,-22 6,-6 12,-19 10,-26 11,-25 0,-25 -5,-20 0,-21 6,-20 5,-10 15,-15 11,-10 26,-50 31,-55 16,-41 14,-35 7,-25 -5,-26 -10,-31 -12,-44 3,-66 6,-51 5,-40 11,-36 10,-40 16,-25 15,-21 25,-30 31,-35 46,-51 30,-41 21,-25 19,-27 25,-21 25,-15 42,-20 35,-20 52,-29 30,-25 37,-10 36,-20 25,-15 26,-20 20,-31 26,-50 25,-46 26,-40 40,-46 36,-20 21,-10 25,-16 13,-12 10,-25 2,-25 -1,-25 -5,-31 0,-20 16,-30 10,-15 16,-15 25,-30 26,-46 11,-30 16,-25 15,-25 26,-25 10,-26 6,-35 -7,-35 -11,-37 -7,-29 -5,-26 -4,-20 10,-20 10,-30 11,-21 16,-40 0,-50 -4,-56 -15,-46 -10,-61 -7,-28 -5,-32 3,-41 17,-25 31,-20 20,-5 31,-10 20,-10 16,-11 5,-20 5,-25 -5,-20 -16,-15 -10,-21 -10,-50 10,-21 5,-10 15,-5 26,-10 15,-5 16,-5 20,-15 5,-15 17,-29 10,-25 16,-30 13,-25 15,-23 45,-53 66,-50 52,-35 25,-20 26,-14 26,-20 15,-21 10,-20 0,-30 6,-26 -1,-35 6,-35 0,-31 -11,-25 3,-35 2,-22 19,-18 17,-11 41,-10 25,-20 31,-36 15,-30 5,-26 0,-35 5,-20 16,-10 10,-6 15,-5 15,-10 0,-10 -5,-5 -15,-10 -36,-20 -25,-5 -21,-5 -35,0 -21,10 -15,5 -5,-5 0,-10 5,-26 5,-20 0,-76 2,-26 -6,-16 -7,-11 -9,-18 -5,-25 -6,-25 6,-26 15,-25 15,-30 20,-31 11,-30 0,-56 5,-20 15,-20 20,0 16,5 10,15 15,15 15,10 11,10 15,-10 5,-15 -10,-20 -15,-15 -11,-31 -5,-25 0,-15 12,-21 14,-4 22,11 26,3 14,-7 4,-15 1,-15 5,-18 13,-26 4,-11 15,-15 11,-15 6,-16 -6,-25 -10,-20 0,-20 1,-21 5,-20 20,-25 16,-15 31,-15 25,-10 21,-15 0,-15 -5,-15 -20,-11 -15,-10 -5,-15 5,-10 15,-15 26,-10 20,-10 9,-10 16,-15 20,-25 15,-31 12,-42 -7,-13 5,-27 10,-10 11,-9 20,-5 49,0 21,5 10,0 16,-6 4,-14 0,-15 -3,-16 -10,-10 -26,-15 -15,-10 -20,-10 0,-10 10,-16 15,-5 21,-5 25,-15 10,-10 10,-20 5,-41 0,-30 -10,-20 -15,-16 -31,0 -20,21 -15,15 -21,10 -10,0 -10,-5 -15,-15 -16,-41 -10,-35 0,-72 9,-26 11,-20 21,-24 15,-20 20,-10 21,-10 15,-11 15,-15 5,-10 6,-15 0,-66 -11,-25 -5,-15 -10,-16 -10,-20 -5,-30 0,-26 10,-40 0,-35 1,-32 -4,-18 -7,-16 -13,-19 -14,-23 -15,-15 -25,-29 -20,-36 -26,-55 -25,-56 -25,-51 -20,-41 -5,-25 -10,-26 5,-15 11,-30 15,-25 9,-22 7,-15 5,-19 5,-20 1,-30 12,-25 10,-36 10,-25 5,-31 5,-25 5,-30 6,-46 -1,-30 16,-46 10,-30 5,-41 -9,-37 -17,-30 -15,-25 -10,-19 -10,-25 -2,-31 -3,-51 10,-30 0,-20 -5,-31 -10,-15 -10,-10 -16,0 -5,-10 -5,-21 6,-30 21,-61 8,-30 12,-27 10,-15 17,-23 31,-20 25,-10 30,-11 18,-16 31,-30 25,-25 15,-26 10,-30 11,-30 0,-36 5,-30 10,-18 16,-30 20,-10 16,-5 36,-10 35,-15 36,-9 65,-30 51,-25 37,-16 51,-21 37,-17 46,-15 48,-15 56,-10 54,-4 30,0 26,6 41,5 25,0 33,-5 25,-6 31,-24 30,-31 46,-35 50,-13 36,-10 25,0 31,11 30,15 36,21 35,26 41,20 45,16 38,5 41,-5 56,-16 36,-25 51,-24 66,-37 z" />
<path id="Hillsborough" d="M -3428,6524 l 117,-349 -102,-247 224,-56 776,-213 420,930 41,91 35,-6 1410,-375 92,-30 215,1096 138,-20 863,-143 47,227 183,-30 36,60 5,41 92,75 154,-101 46,268 301,70 164,55 144,773 -623,92 0,15 201,1161 332,20 92,116 5,10 113,141 -46,81 21,15 10,81 41,-25 31,25 10,30 -10,26 30,35 -10,30 353,86 51,10 322,75 132,145 -45,31 -61,61 -61,80 -56,96 -66,101 -118,137 -725,-9 -1999,-58 -1932,-78 -281,-13 -240,-11 -129,-839 -245,-5 -154,-1050 -98,-672 -460,-10 36,-667 5,-156 127,-632 5,-71 -10,0 81,-515 z" />
<path id="Merrimack" d="M -901,1710 l -5,30 52,71 66,25 56,146 158,106 6,46 -36,81 97,136 5,31 51,40 87,35 61,51 6,25 117,-40 56,166 26,-10 31,101 -31,10 31,91 -26,10 51,137 16,-5 0,45 25,0 26,21 0,30 20,10 51,-25 16,10 10,50 15,0 36,-35 5,-51 51,15 15,-25 36,-5 5,10 46,-25 20,-26 26,-50 61,20 21,-5 -11,-15 5,-36 92,31 16,0 388,297 802,560 823,600 516,404 -91,116 -504,1153 -46,91 -20,1 -97,257 -86,157 -133,263 -127,339 -168,364 -82,-30 93,358 -164,-55 -301,-70 -46,-268 -154,101 -92,-75 -5,-41 -36,-60 -183,30 -47,-227 -863,143 -138,20 -215,-1096 -92,30 -1410,375 -35,6 -41,-91 -420,-930 -776,213 -266,-389 -25,-354 -164,-5 -184,-687 -10,-66 10,-30 306,-561 40,-395 -91,-131 35,-192 77,5 265,40 97,-233 525,-784 347,-516 346,-405 256,749 10,-71 56,0 21,-31 25,10 56,-75 36,15 41,-26 20,-10 31,20 25,71 143,-162 36,20 76,-20 21,20 10,-25 61,-15 36,15 z" />
<path id="Rockingham" d="M 2999,4914 l 1539,1286 261,217 -372,627 358,-6 398,-6 378,-92 337,65 16,21 -10,10 -41,10 -36,35 -20,31 -11,30 -15,20 -30,21 -36,15 -36,0 -25,-10 41,60 -5,41 0,35 -16,46 21,80 25,-35 31,-40 5,-46 143,-41 41,-20 56,0 51,5 36,-10 51,25 15,30 46,10 31,15 36,20 15,0 10,-15 57,0 10,-36 0,-35 -11,-40 -36,-61 -46,-30 -25,-5 -51,0 -16,-5 -10,-25 -31,-86 26,-35 35,-71 5,-15 10,-86 -10,-86 0,-71 30,-5 82,40 41,-15 51,0 46,-5 56,-16 41,41 16,15 46,25 61,45 102,71 62,55 87,71 30,50 47,25 46,25 51,20 -5,41 -21,25 -15,26 -5,30 41,15 31,-5 25,20 -15,35 -31,21 -30,15 -56,5 -62,25 16,26 66,10 56,-11 31,-10 30,-20 16,-5 30,-10 11,10 25,25 26,0 30,-15 26,15 5,30 21,10 20,15 5,56 -76,116 -76,51 -16,35 5,30 -10,46 -20,46 -41,25 -20,15 -5,20 -5,26 -11,20 -40,0 -5,25 25,51 -20,35 -26,15 -30,31 -20,91 -5,10 0,25 -21,35 -40,56 -21,76 -5,35 -51,61 -25,36 -15,25 -26,45 -20,26 -36,50 -10,41 -15,40 -5,81 15,61 0,10 -46,15 -35,30 -21,31 -10,30 5,40 -20,46 -26,-5 -30,-96 -62,-65 -71,15 30,55 52,56 -16,20 -15,10 -25,20 -26,61 31,45 66,15 26,-25 20,-35 21,-5 25,15 -15,70 -5,96 -5,46 -15,-1 -77,31 -66,40 -66,36 -31,15 -26,-5 -76,-45 -87,-66 -77,-70 -46,-30 -51,-25 -62,-26 -71,-15 -67,1 -71,15 -67,30 -122,71 -102,56 -36,20 -51,21 -82,20 -132,21 -87,25 -138,26 -51,20 -36,25 -51,46 -46,56 -142,449 -552,-165 -286,147 -168,197 42,591 -57,-20 -102,-30 -92,-30 -72,-15 -56,0 -61,5 -66,25 -7,5 -132,-145 -322,-75 -51,-10 -353,-86 10,-30 -30,-35 10,-26 -10,-30 -31,-25 -41,25 -10,-81 -21,-15 46,-81 -113,-141 -5,-10 -92,-116 -332,-20 -201,-1161 0,-15 623,-92 -144,-773 -93,-358 82,30 168,-364 127,-339 133,-263 86,-157 97,-257 20,-1 46,-91 z" />
<path id="Strafford" d="M 3662,1966 l 285,-375 134,728 46,-61 36,55 41,-45 30,50 31,-60 36,65 142,-228 36,31 56,-41 31,35 45,-55 21,55 51,-55 108,520 494,-627 4,22 15,20 15,31 13,65 10,43 3,66 -14,71 -3,38 -11,30 -8,36 -19,36 -20,31 -14,31 -10,30 -11,26 -3,20 -2,18 0,12 -5,10 -15,16 -11,20 6,20 5,15 20,5 16,10 15,10 22,15 10,15 1,20 0,11 2,8 -6,21 -18,82 -9,46 11,30 11,20 5,10 2,50 -4,36 -10,30 -24,31 -5,26 -7,35 -16,20 -20,20 -10,5 -31,26 -14,18 -20,31 -1,9 -11,38 -7,9 -3,51 6,40 16,40 1,30 1,16 2,9 -6,31 -20,21 -10,25 -4,26 6,25 9,31 6,23 2,16 17,50 22,40 21,25 9,22 13,38 2,23 -5,20 5,16 6,10 0,50 10,10 10,5 21,10 15,11 11,13 23,52 37,44 16,25 11,10 15,2 30,-10 31,0 35,10 16,-1 21,0 20,-1 10,0 11,15 -1,20 12,20 6,9 8,8 25,20 21,10 25,26 46,40 11,19 6,20 1,25 6,31 8,23 3,7 16,25 15,14 16,10 16,3 15,10 5,20 5,15 0,10 -10,10 -10,5 -20,0 -9,18 -10,15 -2,23 0,8 15,6 14,-3 17,-1 21,10 5,5 0,36 5,10 15,10 31,10 26,9 16,-1 10,10 6,20 5,20 11,20 10,19 13,14 21,20 46,50 25,26 17,19 16,29 17,25 16,18 5,8 20,6 21,3 27,2 30,10 16,10 20,21 16,19 11,25 5,25 6,20 0,10 21,10 21,6 21,5 27,6 20,10 26,20 26,25 16,40 11,25 10,20 11,20 15,19 7,31 -4,20 -10,25 -15,21 -9,16 -5,25 1,20 -6,14 -13,27 -10,26 1,15 5,30 1,20 1,25 -5,26 -11,19 -12,15 -14,12 -20,10 -11,10 -10,20 5,15 11,20 15,21 5,35 0,25 -10,51 -10,40 -10,41 -10,40 -8,38 -2,21 -2,12 -3,35 -5,38 5,51 2,35 7,23 5,16 17,44 0,26 -26,40 16,36 -36,30 -71,-40 -52,-61 -10,-50 -25,15 -21,50 -97,16 -35,10 -108,-45 -10,40 0,15 21,21 20,10 51,35 36,15 0,147 16,45 0,40 15,51 -36,10 -46,-60 -40,5 10,30 5,46 -36,55 -35,31 -16,-21 -337,-65 -378,92 -398,6 -358,6 372,-627 -261,-217 -1539,-1286 91,-116 607,-790 -155,-935 -109,-793 z" />
<path id="Sullivan" d="M -2574,2090 l -525,784 -97,233 -265,-40 -77,-5 -35,192 91,131 -40,395 -306,561 -10,30 10,66 184,687 164,5 25,354 266,389 -224,56 102,247 -117,349 -562,-5 -582,-35 45,-192 133,-359 -807,122 -618,81 16,80 -378,-30 36,283 -486,-40 0,-273 -157,-15 1,-11 -4,-20 5,-31 6,-30 6,-22 9,-20 12,-18 9,-13 10,-20 6,-20 0,-30 -5,-25 -15,-23 -10,-26 -5,-25 0,-18 26,-35 36,-35 21,-20 9,-10 5,-18 -1,-36 -10,-27 -5,-36 -6,-50 10,-35 16,-35 11,-31 10,-40 5,-24 -2,-22 -2,-15 -10,-35 -5,-30 -10,-31 -6,-36 5,-25 4,-11 6,-17 10,-30 8,-22 11,-15 25,-15 36,-30 21,-20 37,-40 25,-45 21,-41 20,-45 20,-46 11,-35 15,-46 8,-41 6,-35 12,-40 10,-30 20,-36 21,-45 5,-30 -5,-16 -21,-25 -25,-25 -31,-46 -15,-45 5,-36 7,-41 -4,-21 11,-20 21,-39 16,-25 15,-20 31,-36 30,-25 16,-30 -5,-21 -11,-15 -20,-10 -26,-5 -30,5 -36,-10 -41,-25 -20,-31 -5,-35 -5,-25 0,-51 5,-40 4,-37 16,-24 15,-20 26,-36 10,-20 5,-20 5,-45 10,-36 6,-45 5,-46 5,-45 5,-46 15,-45 19,-92 22,-116 10,-45 10,-41 11,-35 6,-38 4,-40 -4,-38 0,-36 -7,-28 11,-27 20,-36 19,-57 21,-56 6,-30 5,-35 1,-41 -5,-35 -10,-31 -20,-30 -27,-29 -41,-35 -13,-18 -3,-3 -20,-24 -2,-41 1,-31 17,-45 20,-40 25,-38 31,-56 31,-50 16,-55 11,-61 -2,-44 0,-42 -5,-40 -1,-41 5,-40 11,-41 10,-35 11,-25 21,-30 30,-20 26,-20 50,-20 82,-40 46,-30 30,-21 28,-18 26,-25 28,-28 15,-26 960,173 46,20 102,41 684,298 -107,172 234,101 174,-268 20,106 z" />

<use xlink:href="#Sullivan" stroke="black" fill="white" stroke-linejoin="round" stroke-width="50" />
<use xlink:href="#Strafford" stroke="black" fill="white" stroke-linejoin="round" stroke-width="50" />
<use xlink:href="#Rockingham" stroke="black" fill="white" stroke-linejoin="round" stroke-width="50" />
<use xlink:href="#Merrimack" stroke="black" fill="white" stroke-linejoin="round" stroke-width="50" />
<use xlink:href="#Hillsborough" stroke="black" fill="white" stroke-linejoin="round" stroke-width="50" />
<use xlink:href="#Grafton" stroke="black" fill="white" stroke-linejoin="round" stroke-width="50" />
<use xlink:href="#Coos" stroke="black" fill="white" stroke-linejoin="round" stroke-width="50" />
<use xlink:href="#Cheshire" stroke="black" fill="white" stroke-linejoin="round" stroke-width="50" />
<use xlink:href="#Carroll" stroke="black" fill="#5cb85c" stroke-linejoin="round" stroke-width="50" />
<use xlink:href="#Belknap" stroke="black" fill="white" stroke-linejoin="round" stroke-width="50" />
<use xlink:href="#state_outline" stroke="black" fill="none" stroke-linejoin="round" stroke-width="50" />

</svg>
